begin
	imax			        128
	jmax			        128
	kmax			        6
  iproc             2
  jproc             2
  kproc             1
	ghost		    	    3
	n_iter			      400
	subiter			      30
	conv_space_order	2
	conv_time_order		3
	flux_form		      conservative
	dt			          0.01
	mu			          0.01
	screen_op_iter		5
  print_ls          1
  write_residual    1
	file_op_iter		  10
	2d_mode			      xy
	op_file_format		tecplot
	op_overwrite		  no
	op_details		    basic
end
